{
    "count": 645781,
    "next": "http://127.0.0.1:8000/api/endata/?page=2",
    "previous": null,
    "results": [
        {
            "lang": "ED",
            "sentence_id": "000001",
            "word_id": "01",
            "word": "'",
            "lemma": "'",
            "links": "1",
            "morpho": "'",
            "pos": "''",
            "phrase": "-",
            "grm": "-",
            "ner": "-",
            "semantic": "-"
        },
        {
            "lang": "ED",
            "sentence_id": "000001",
            "word_id": "02",
            "word": "It",
            "lemma": "it",
            "links": "-",
            "morpho": "it",
            "pos": "PRP",
            "phrase": "-",
            "grm": "-",
            "ner": "-",
            "semantic": "-"
        },
        {
            "lang": "ED",
            "sentence_id": "000001",
            "word_id": "03",
            "word": "'ll",
            "lemma": "'ll",
            "links": "-",
            "morpho": "-",
            "pos": "MD",
            "phrase": "-",
            "grm": "-",
            "ner": "-",
            "semantic": "-"
        },
        {
            "lang": "ED",
            "sentence_id": "000001",
            "word_id": "04",
            "word": "be",
            "lemma": "be",
            "links": "-",
            "morpho": "be",
            "pos": "VB",
            "phrase": "-",
            "grm": "-",
            "ner": "-",
            "semantic": "-"
        },
        {
            "lang": "ED",
            "sentence_id": "000001",
            "word_id": "05",
            "word": "cheap",
            "lemma": "cheap",
            "links": "13",
            "morpho": "cheap",
            "pos": "JJ",
            "phrase": "-",
            "grm": "-",
            "ner": "-",
            "semantic": "-"
        },
        {
            "lang": "ED",
            "sentence_id": "000001",
            "word_id": "06",
            "word": "at",
            "lemma": "at",
            "links": "-",
            "morpho": "at",
            "pos": "IN",
            "phrase": "-",
            "grm": "-",
            "ner": "-",
            "semantic": "-"
        },
        {
            "lang": "ED",
            "sentence_id": "000001",
            "word_id": "07",
            "word": "the",
            "lemma": "the",
            "links": "-",
            "morpho": "the",
            "pos": "DT",
            "phrase": "-",
            "grm": "-",
            "ner": "-",
            "semantic": "-"
        },
        {
            "lang": "ED",
            "sentence_id": "000001",
            "word_id": "08",
            "word": "price",
            "lemma": "price",
            "links": "12",
            "morpho": "price",
            "pos": "NN",
            "phrase": "-",
            "grm": "-",
            "ner": "-",
            "semantic": "-"
        },
        {
            "lang": "ED",
            "sentence_id": "000001",
            "word_id": "09",
            "word": "if",
            "lemma": "if",
            "links": "2",
            "morpho": "if",
            "pos": "IN",
            "phrase": "-",
            "grm": "-",
            "ner": "-",
            "semantic": "-"
        },
        {
            "lang": "ED",
            "sentence_id": "000001",
            "word_id": "10",
            "word": "it",
            "lemma": "it",
            "links": "3",
            "morpho": "it",
            "pos": "PRP",
            "phrase": "-",
            "grm": "-",
            "ner": "-",
            "semantic": "-"
        },
        {
            "lang": "ED",
            "sentence_id": "000001",
            "word_id": "11",
            "word": "keeps",
            "lemma": "keep",
            "links": "5,10,11",
            "morpho": "keep",
            "pos": "VBZ",
            "phrase": "-",
            "grm": "-",
            "ner": "-",
            "semantic": "-"
        }
    ]
}